nju_digital/ex1/obj_dir/dump.vcd
$version Generated by VerilatedVcd $end
$timescale 1s $end

 $scope module TOP $end
  $var wire  8 1 a [7:0] $end
  $var wire  2 2 s [1:0] $end
  $var wire  2 3 y [1:0] $end
  $scope module mux41b $end
   $var wire  8 1 a [7:0] $end
   $var wire  2 2 s [1:0] $end
   $var wire  2 3 y [1:0] $end
   $scope module i0 $end
    $var wire 32 6 DATA_LEN [31:0] $end
    $var wire 32 6 KEY_LEN [31:0] $end
    $var wire 32 5 NR_KEY [31:0] $end
    $var wire  2 7 default_out [1:0] $end
    $var wire  2 2 key [1:0] $end
    $var wire 16 4 lut [15:0] $end
    $var wire  2 3 out [1:0] $end
    $scope module i0 $end
     $var wire 32 6 DATA_LEN [31:0] $end
     $var wire 32 8 HAS_DEFAULT [31:0] $end
     $var wire 32 6 KEY_LEN [31:0] $end
     $var wire 32 5 NR_KEY [31:0] $end
     $var wire 32 5 PAIR_LEN [31:0] $end
     $var wire  2 + data_list[0] [1:0] $end
     $var wire  2 , data_list[1] [1:0] $end
     $var wire  2 - data_list[2] [1:0] $end
     $var wire  2 . data_list[3] [1:0] $end
     $var wire  2 7 default_out [1:0] $end
     $var wire  1 0 hit $end
     $var wire 32 9 i [31:0] $end
     $var wire  2 2 key [1:0] $end
     $var wire  2 # key_list[0] [1:0] $end
     $var wire  2 $ key_list[1] [1:0] $end
     $var wire  2 % key_list[2] [1:0] $end
     $var wire  2 & key_list[3] [1:0] $end
     $var wire 16 4 lut [15:0] $end
     $var wire  2 / lut_out [1:0] $end
     $var wire  2 3 out [1:0] $end
     $var wire  4 ' pair_list[0] [3:0] $end
     $var wire  4 ( pair_list[1] [3:0] $end
     $var wire  4 ) pair_list[2] [3:0] $end
     $var wire  4 * pair_list[3] [3:0] $end
    $upscope $end
   $upscope $end
  $upscope $end
 $upscope $end
$enddefinitions $end


#1
b11 #
b10 $
b01 %
b00 &
b1100 '
b1000 (
b0100 )
b0000 *
b00 +
b00 ,
b00 -
b00 .
b00 /
10
b00000000 1
b00 2
b00 3
b0000010010001100 4
b00000000000000000000000000000100 5
b00000000000000000000000000000010 6
b00 7
b00000000000000000000000000000001 8
b00000000000000000000000000000100 9
#2
b0001 *
b01 .
b01 /
b00000001 1
b01 3
b0001010010001100 4
#3
b0010 *
b10 .
b10 /
b00000010 1
b10 3
b0010010010001100 4
#4
b0011 *
b11 .
b11 /
b00000011 1
b11 3
b0011010010001100 4
#5
b0110 )
b0000 *
b10 -
b00 .
b10 /
b00001000 1
b01 2
b10 3
b0000011010001100 4
#6
b0101 )
b0001 *
b01 -
b01 .
b01 /
b00000101 1
b01 3
b0001010110001100 4
#7
b0111 )
b0010 *
b11 -
b10 .
b11 /
b00001110 1
b11 3
b0010011110001100 4
#8
b0100 )
b0011 *
b00 -
b11 .
b00 /
b00000011 1
b00 3
b0011010010001100 4
#9
b0000 *
b00 .
b00000000 1
b10 2
b0000010010001100 4
#10
b1001 (
b0101 )
b0001 *
b01 ,
b01 -
b01 .
b01 /
b00010101 1
b01 3
b0001010110011100 4
#11
b1011 (
b0111 )
b0010 *
b11 ,
b11 -
b10 .
b11 /
b00111110 1
b11 3
b0010011110111100 4
#12
b1010 (
b0110 )
b0011 *
b10 ,
b10 -
b11 .
b10 /
b00101011 1
b10 3
b0011011010101100 4
#13
b1111 '
b1000 (
b0100 )
b0000 *
b11 +
b00 ,
b00 -
b00 .
b11 /
b11000000 1
b11 2
b11 3
b0000010010001111 4
#14
b1110 '
b0101 )
b0001 *
b10 +
b01 -
b01 .
b10 /
b10000101 1
b10 3
b0001010110001110 4
#15
b1101 '
b0111 )
b0010 *
b01 +
b11 -
b10 .
b01 /
b01001110 1
b01 3
b0010011110001101 4
#16
b1100 '
b0110 )
b0011 *
b00 +
b10 -
b11 .
b00 /
b00001011 1
b00 3
b0011011010001100 4
