nju_digital/ex1/dump.vcd
$version Generated by VerilatedVcd $end
$timescale 1s $end

 $scope module TOP $end
  $var wire  4 1 a [3:0] $end
  $var wire  2 2 s [1:0] $end
  $var wire  1 3 y $end
  $scope module mux41b $end
   $var wire  4 1 a [3:0] $end
   $var wire  2 2 s [1:0] $end
   $var wire  1 3 y $end
   $scope module i0 $end
    $var wire 32 7 DATA_LEN [31:0] $end
    $var wire 32 6 KEY_LEN [31:0] $end
    $var wire 32 5 NR_KEY [31:0] $end
    $var wire  1 8 default_out [0:0] $end
    $var wire  2 2 key [1:0] $end
    $var wire 12 4 lut [11:0] $end
    $var wire  1 3 out [0:0] $end
    $scope module i0 $end
     $var wire 32 7 DATA_LEN [31:0] $end
     $var wire 32 7 HAS_DEFAULT [31:0] $end
     $var wire 32 6 KEY_LEN [31:0] $end
     $var wire 32 5 NR_KEY [31:0] $end
     $var wire 32 9 PAIR_LEN [31:0] $end
     $var wire  1 + data_list[0] [0:0] $end
     $var wire  1 , data_list[1] [0:0] $end
     $var wire  1 - data_list[2] [0:0] $end
     $var wire  1 . data_list[3] [0:0] $end
     $var wire  1 8 default_out [0:0] $end
     $var wire  1 0 hit $end
     $var wire 32 : i [31:0] $end
     $var wire  2 2 key [1:0] $end
     $var wire  2 # key_list[0] [1:0] $end
     $var wire  2 $ key_list[1] [1:0] $end
     $var wire  2 % key_list[2] [1:0] $end
     $var wire  2 & key_list[3] [1:0] $end
     $var wire 12 4 lut [11:0] $end
     $var wire  1 / lut_out [0:0] $end
     $var wire  1 3 out [0:0] $end
     $var wire  3 ' pair_list[0] [2:0] $end
     $var wire  3 ( pair_list[1] [2:0] $end
     $var wire  3 ) pair_list[2] [2:0] $end
     $var wire  3 * pair_list[3] [2:0] $end
    $upscope $end
   $upscope $end
  $upscope $end
 $upscope $end
$enddefinitions $end


#1
b11 #
b10 $
b01 %
b00 &
b111 '
b101 (
b011 )
b000 *
1+
1,
1-
0.
0/
10
b1110 1
b00 2
03
b000011101111 4
b00000000000000000000000000000100 5
b00000000000000000000000000000010 6
b00000000000000000000000000000001 7
08
b00000000000000000000000000000011 9
b00000000000000000000000000000100 :
#2
b110 '
b100 (
b010 )
b001 *
0+
0,
0-
1.
1/
b0001 1
13
b001010100110 4
#3
b111 '
b101 (
b011 )
b000 *
1+
1,
1-
0.
b1110 1
b01 2
b000011101111 4
#4
b110 '
b100 (
0+
0,
b0010 1
b000011100110 4
#5
b111 '
1+
0/
b1010 1
b10 2
03
b000011100111 4
#6
b110 '
b101 (
b010 )
0+
1,
0-
1/
b0100 1
13
b000010101110 4
#7
b011 )
b001 *
1-
1.
0/
b0111 1
b11 2
03
b001011101110 4
#8
b111 '
b100 (
b010 )
1+
0,
0-
1/
b1001 1
13
b001010100111 4
